%YAML 1.1
%TAG !u! tag:unity3d.com,2011:
--- !u!74 &7400000
AnimationClip:
  m_ObjectHideFlags: 0
  m_CorrespondingSourceObject: {fileID: 0}
  m_PrefabInstance: {fileID: 0}
  m_PrefabAsset: {fileID: 0}
  m_Name: Fire 2
  serializedVersion: 6
  m_Legacy: 0
  m_Compressed: 0
  m_UseHighQualityCurve: 1
  m_RotationCurves: []
  m_CompressedRotationCurves: []
  m_EulerCurves: []
  m_PositionCurves: []
  m_ScaleCurves: []
  m_FloatCurves: []
  m_PPtrCurves:
  - curve:
    - time: 0
      value: {fileID: 2970337452502119186, guid: a8d10c160a44f46a29ed2d62d86f94d5,
        type: 3}
    - time: 0.083333336
      value: {fileID: 3482629921613120792, guid: a8d10c160a44f46a29ed2d62d86f94d5,
        type: 3}
    - time: 0.16666667
      value: {fileID: 7099337607907380135, guid: a8d10c160a44f46a29ed2d62d86f94d5,
        type: 3}
    - time: 0.25
      value: {fileID: 7207715318428086413, guid: a8d10c160a44f46a29ed2d62d86f94d5,
        type: 3}
    - time: 0.33333334
      value: {fileID: -2790611455785389393, guid: a8d10c160a44f46a29ed2d62d86f94d5,
        type: 3}
    - time: 0.41666666
      value: {fileID: 1388986626044008652, guid: a8d10c160a44f46a29ed2d62d86f94d5,
        type: 3}
    - time: 0.5
      value: {fileID: 7396341844345546236, guid: a8d10c160a44f46a29ed2d62d86f94d5,
        type: 3}
    - time: 0.5833333
      value: {fileID: 1417434405007049008, guid: a8d10c160a44f46a29ed2d62d86f94d5,
        type: 3}
    - time: 0.6666667
      value: {fileID: 4995640781788056351, guid: a8d10c160a44f46a29ed2d62d86f94d5,
        type: 3}
    - time: 0.75
      value: {fileID: -7596105343093801740, guid: a8d10c160a44f46a29ed2d62d86f94d5,
        type: 3}
    - time: 0.8333333
      value: {fileID: -4114077946465517477, guid: a8d10c160a44f46a29ed2d62d86f94d5,
        type: 3}
    - time: 0.9166667
      value: {fileID: 8593915422247703017, guid: a8d10c160a44f46a29ed2d62d86f94d5,
        type: 3}
    - time: 1
      value: {fileID: -1715524610452980842, guid: a8d10c160a44f46a29ed2d62d86f94d5,
        type: 3}
    - time: 1.0833334
      value: {fileID: -2008682264347070124, guid: a8d10c160a44f46a29ed2d62d86f94d5,
        type: 3}
    - time: 1.1666666
      value: {fileID: 8102404811450300119, guid: a8d10c160a44f46a29ed2d62d86f94d5,
        type: 3}
    - time: 1.25
      value: {fileID: 3326039074070074725, guid: a8d10c160a44f46a29ed2d62d86f94d5,
        type: 3}
    - time: 1.3333334
      value: {fileID: -7853680735840309698, guid: a8d10c160a44f46a29ed2d62d86f94d5,
        type: 3}
    - time: 1.4166666
      value: {fileID: 7153970189339175199, guid: a8d10c160a44f46a29ed2d62d86f94d5,
        type: 3}
    - time: 1.5
      value: {fileID: 1206754967901456004, guid: a8d10c160a44f46a29ed2d62d86f94d5,
        type: 3}
    - time: 1.5833334
      value: {fileID: 2346342944870766190, guid: a8d10c160a44f46a29ed2d62d86f94d5,
        type: 3}
    - time: 1.6666666
      value: {fileID: 6239555526744030331, guid: a8d10c160a44f46a29ed2d62d86f94d5,
        type: 3}
    - time: 1.75
      value: {fileID: 8833092064539259754, guid: a8d10c160a44f46a29ed2d62d86f94d5,
        type: 3}
    - time: 1.8333334
      value: {fileID: 548683778401694157, guid: a8d10c160a44f46a29ed2d62d86f94d5,
        type: 3}
    - time: 1.9166666
      value: {fileID: -6034258256759095299, guid: a8d10c160a44f46a29ed2d62d86f94d5,
        type: 3}
    - time: 2
      value: {fileID: -1752325089509308597, guid: a8d10c160a44f46a29ed2d62d86f94d5,
        type: 3}
    - time: 2.0833333
      value: {fileID: -3121433432217541092, guid: a8d10c160a44f46a29ed2d62d86f94d5,
        type: 3}
    - time: 2.1666667
      value: {fileID: 761084703727085738, guid: a8d10c160a44f46a29ed2d62d86f94d5,
        type: 3}
    - time: 2.25
      value: {fileID: -3748464226012507005, guid: a8d10c160a44f46a29ed2d62d86f94d5,
        type: 3}
    - time: 2.3333333
      value: {fileID: 2758317115893048271, guid: a8d10c160a44f46a29ed2d62d86f94d5,
        type: 3}
    - time: 2.4166667
      value: {fileID: 5743599553951665018, guid: a8d10c160a44f46a29ed2d62d86f94d5,
        type: 3}
    - time: 2.5
      value: {fileID: -6185224302831636081, guid: a8d10c160a44f46a29ed2d62d86f94d5,
        type: 3}
    - time: 2.5833333
      value: {fileID: -8385355912205081523, guid: a8d10c160a44f46a29ed2d62d86f94d5,
        type: 3}
    - time: 2.6666667
      value: {fileID: 3189898301788670076, guid: a8d10c160a44f46a29ed2d62d86f94d5,
        type: 3}
    - time: 2.75
      value: {fileID: 2399131916873764372, guid: a8d10c160a44f46a29ed2d62d86f94d5,
        type: 3}
    - time: 2.8333333
      value: {fileID: 28502614175120541, guid: a8d10c160a44f46a29ed2d62d86f94d5, type: 3}
    - time: 2.9166667
      value: {fileID: 5403370142234908109, guid: a8d10c160a44f46a29ed2d62d86f94d5,
        type: 3}
    - time: 3
      value: {fileID: -2524563623812127511, guid: a8d10c160a44f46a29ed2d62d86f94d5,
        type: 3}
    - time: 3.0833333
      value: {fileID: -8640701246741729391, guid: a8d10c160a44f46a29ed2d62d86f94d5,
        type: 3}
    - time: 3.1666667
      value: {fileID: 4887055034052794890, guid: a8d10c160a44f46a29ed2d62d86f94d5,
        type: 3}
    - time: 3.25
      value: {fileID: 4851889501819418561, guid: a8d10c160a44f46a29ed2d62d86f94d5,
        type: 3}
    - time: 3.3333333
      value: {fileID: -3976890450119064872, guid: a8d10c160a44f46a29ed2d62d86f94d5,
        type: 3}
    - time: 3.4166667
      value: {fileID: 1025137675665218399, guid: a8d10c160a44f46a29ed2d62d86f94d5,
        type: 3}
    - time: 3.5
      value: {fileID: -7860788931211203677, guid: a8d10c160a44f46a29ed2d62d86f94d5,
        type: 3}
    - time: 3.5833333
      value: {fileID: -5864817962681330390, guid: a8d10c160a44f46a29ed2d62d86f94d5,
        type: 3}
    - time: 3.6666667
      value: {fileID: 6183308727491565116, guid: a8d10c160a44f46a29ed2d62d86f94d5,
        type: 3}
    - time: 3.75
      value: {fileID: -1120389347485744893, guid: a8d10c160a44f46a29ed2d62d86f94d5,
        type: 3}
    - time: 3.8333333
      value: {fileID: 5219624332472904849, guid: a8d10c160a44f46a29ed2d62d86f94d5,
        type: 3}
    - time: 3.9166667
      value: {fileID: 2940731970887870640, guid: a8d10c160a44f46a29ed2d62d86f94d5,
        type: 3}
    - time: 4
      value: {fileID: 6606820821162460118, guid: a8d10c160a44f46a29ed2d62d86f94d5,
        type: 3}
    - time: 4.0833335
      value: {fileID: -6414881827493339876, guid: a8d10c160a44f46a29ed2d62d86f94d5,
        type: 3}
    - time: 4.1666665
      value: {fileID: -7545739685436386030, guid: a8d10c160a44f46a29ed2d62d86f94d5,
        type: 3}
    - time: 4.25
      value: {fileID: 5542958759239602778, guid: a8d10c160a44f46a29ed2d62d86f94d5,
        type: 3}
    - time: 4.3333335
      value: {fileID: 465557427780156960, guid: a8d10c160a44f46a29ed2d62d86f94d5,
        type: 3}
    - time: 4.4166665
      value: {fileID: 1931425504241666921, guid: a8d10c160a44f46a29ed2d62d86f94d5,
        type: 3}
    - time: 4.5
      value: {fileID: 135250242047474820, guid: a8d10c160a44f46a29ed2d62d86f94d5,
        type: 3}
    - time: 4.5833335
      value: {fileID: 3693814062667884607, guid: a8d10c160a44f46a29ed2d62d86f94d5,
        type: 3}
    - time: 4.6666665
      value: {fileID: 3800833796763386628, guid: a8d10c160a44f46a29ed2d62d86f94d5,
        type: 3}
    - time: 4.75
      value: {fileID: 3066926682901577615, guid: a8d10c160a44f46a29ed2d62d86f94d5,
        type: 3}
    - time: 4.8333335
      value: {fileID: -5085622822517878446, guid: a8d10c160a44f46a29ed2d62d86f94d5,
        type: 3}
    - time: 4.9166665
      value: {fileID: 5887170447007070768, guid: a8d10c160a44f46a29ed2d62d86f94d5,
        type: 3}
    attribute: m_Sprite
    path: 
    classID: 212
    script: {fileID: 0}
  m_SampleRate: 12
  m_WrapMode: 0
  m_Bounds:
    m_Center: {x: 0, y: 0, z: 0}
    m_Extent: {x: 0, y: 0, z: 0}
  m_ClipBindingConstant:
    genericBindings:
    - serializedVersion: 2
      path: 0
      attribute: 0
      script: {fileID: 0}
      typeID: 212
      customType: 23
      isPPtrCurve: 1
    pptrCurveMapping:
    - {fileID: 2970337452502119186, guid: a8d10c160a44f46a29ed2d62d86f94d5, type: 3}
    - {fileID: 3482629921613120792, guid: a8d10c160a44f46a29ed2d62d86f94d5, type: 3}
    - {fileID: 7099337607907380135, guid: a8d10c160a44f46a29ed2d62d86f94d5, type: 3}
    - {fileID: 7207715318428086413, guid: a8d10c160a44f46a29ed2d62d86f94d5, type: 3}
    - {fileID: -2790611455785389393, guid: a8d10c160a44f46a29ed2d62d86f94d5, type: 3}
    - {fileID: 1388986626044008652, guid: a8d10c160a44f46a29ed2d62d86f94d5, type: 3}
    - {fileID: 7396341844345546236, guid: a8d10c160a44f46a29ed2d62d86f94d5, type: 3}
    - {fileID: 1417434405007049008, guid: a8d10c160a44f46a29ed2d62d86f94d5, type: 3}
    - {fileID: 4995640781788056351, guid: a8d10c160a44f46a29ed2d62d86f94d5, type: 3}
    - {fileID: -7596105343093801740, guid: a8d10c160a44f46a29ed2d62d86f94d5, type: 3}
    - {fileID: -4114077946465517477, guid: a8d10c160a44f46a29ed2d62d86f94d5, type: 3}
    - {fileID: 8593915422247703017, guid: a8d10c160a44f46a29ed2d62d86f94d5, type: 3}
    - {fileID: -1715524610452980842, guid: a8d10c160a44f46a29ed2d62d86f94d5, type: 3}
    - {fileID: -2008682264347070124, guid: a8d10c160a44f46a29ed2d62d86f94d5, type: 3}
    - {fileID: 8102404811450300119, guid: a8d10c160a44f46a29ed2d62d86f94d5, type: 3}
    - {fileID: 3326039074070074725, guid: a8d10c160a44f46a29ed2d62d86f94d5, type: 3}
    - {fileID: -7853680735840309698, guid: a8d10c160a44f46a29ed2d62d86f94d5, type: 3}
    - {fileID: 7153970189339175199, guid: a8d10c160a44f46a29ed2d62d86f94d5, type: 3}
    - {fileID: 1206754967901456004, guid: a8d10c160a44f46a29ed2d62d86f94d5, type: 3}
    - {fileID: 2346342944870766190, guid: a8d10c160a44f46a29ed2d62d86f94d5, type: 3}
    - {fileID: 6239555526744030331, guid: a8d10c160a44f46a29ed2d62d86f94d5, type: 3}
    - {fileID: 8833092064539259754, guid: a8d10c160a44f46a29ed2d62d86f94d5, type: 3}
    - {fileID: 548683778401694157, guid: a8d10c160a44f46a29ed2d62d86f94d5, type: 3}
    - {fileID: -6034258256759095299, guid: a8d10c160a44f46a29ed2d62d86f94d5, type: 3}
    - {fileID: -1752325089509308597, guid: a8d10c160a44f46a29ed2d62d86f94d5, type: 3}
    - {fileID: -3121433432217541092, guid: a8d10c160a44f46a29ed2d62d86f94d5, type: 3}
    - {fileID: 761084703727085738, guid: a8d10c160a44f46a29ed2d62d86f94d5, type: 3}
    - {fileID: -3748464226012507005, guid: a8d10c160a44f46a29ed2d62d86f94d5, type: 3}
    - {fileID: 2758317115893048271, guid: a8d10c160a44f46a29ed2d62d86f94d5, type: 3}
    - {fileID: 5743599553951665018, guid: a8d10c160a44f46a29ed2d62d86f94d5, type: 3}
    - {fileID: -6185224302831636081, guid: a8d10c160a44f46a29ed2d62d86f94d5, type: 3}
    - {fileID: -8385355912205081523, guid: a8d10c160a44f46a29ed2d62d86f94d5, type: 3}
    - {fileID: 3189898301788670076, guid: a8d10c160a44f46a29ed2d62d86f94d5, type: 3}
    - {fileID: 2399131916873764372, guid: a8d10c160a44f46a29ed2d62d86f94d5, type: 3}
    - {fileID: 28502614175120541, guid: a8d10c160a44f46a29ed2d62d86f94d5, type: 3}
    - {fileID: 5403370142234908109, guid: a8d10c160a44f46a29ed2d62d86f94d5, type: 3}
    - {fileID: -2524563623812127511, guid: a8d10c160a44f46a29ed2d62d86f94d5, type: 3}
    - {fileID: -8640701246741729391, guid: a8d10c160a44f46a29ed2d62d86f94d5, type: 3}
    - {fileID: 4887055034052794890, guid: a8d10c160a44f46a29ed2d62d86f94d5, type: 3}
    - {fileID: 4851889501819418561, guid: a8d10c160a44f46a29ed2d62d86f94d5, type: 3}
    - {fileID: -3976890450119064872, guid: a8d10c160a44f46a29ed2d62d86f94d5, type: 3}
    - {fileID: 1025137675665218399, guid: a8d10c160a44f46a29ed2d62d86f94d5, type: 3}
    - {fileID: -7860788931211203677, guid: a8d10c160a44f46a29ed2d62d86f94d5, type: 3}
    - {fileID: -5864817962681330390, guid: a8d10c160a44f46a29ed2d62d86f94d5, type: 3}
    - {fileID: 6183308727491565116, guid: a8d10c160a44f46a29ed2d62d86f94d5, type: 3}
    - {fileID: -1120389347485744893, guid: a8d10c160a44f46a29ed2d62d86f94d5, type: 3}
    - {fileID: 5219624332472904849, guid: a8d10c160a44f46a29ed2d62d86f94d5, type: 3}
    - {fileID: 2940731970887870640, guid: a8d10c160a44f46a29ed2d62d86f94d5, type: 3}
    - {fileID: 6606820821162460118, guid: a8d10c160a44f46a29ed2d62d86f94d5, type: 3}
    - {fileID: -6414881827493339876, guid: a8d10c160a44f46a29ed2d62d86f94d5, type: 3}
    - {fileID: -7545739685436386030, guid: a8d10c160a44f46a29ed2d62d86f94d5, type: 3}
    - {fileID: 5542958759239602778, guid: a8d10c160a44f46a29ed2d62d86f94d5, type: 3}
    - {fileID: 465557427780156960, guid: a8d10c160a44f46a29ed2d62d86f94d5, type: 3}
    - {fileID: 1931425504241666921, guid: a8d10c160a44f46a29ed2d62d86f94d5, type: 3}
    - {fileID: 135250242047474820, guid: a8d10c160a44f46a29ed2d62d86f94d5, type: 3}
    - {fileID: 3693814062667884607, guid: a8d10c160a44f46a29ed2d62d86f94d5, type: 3}
    - {fileID: 3800833796763386628, guid: a8d10c160a44f46a29ed2d62d86f94d5, type: 3}
    - {fileID: 3066926682901577615, guid: a8d10c160a44f46a29ed2d62d86f94d5, type: 3}
    - {fileID: -5085622822517878446, guid: a8d10c160a44f46a29ed2d62d86f94d5, type: 3}
    - {fileID: 5887170447007070768, guid: a8d10c160a44f46a29ed2d62d86f94d5, type: 3}
  m_AnimationClipSettings:
    serializedVersion: 2
    m_AdditiveReferencePoseClip: {fileID: 0}
    m_AdditiveReferencePoseTime: 0
    m_StartTime: 0
    m_StopTime: 5
    m_OrientationOffsetY: 0
    m_Level: 0
    m_CycleOffset: 0
    m_HasAdditiveReferencePose: 0
    m_LoopTime: 1
    m_LoopBlend: 0
    m_LoopBlendOrientation: 0
    m_LoopBlendPositionY: 0
    m_LoopBlendPositionXZ: 0
    m_KeepOriginalOrientation: 0
    m_KeepOriginalPositionY: 1
    m_KeepOriginalPositionXZ: 0
    m_HeightFromFeet: 0
    m_Mirror: 0
  m_EditorCurves: []
  m_EulerEditorCurves: []
  m_HasGenericRootTransform: 0
  m_HasMotionFloatCurves: 0
  m_Events: []
