%YAML 1.1
%TAG !u! tag:unity3d.com,2011:
--- !u!74 &7400000
AnimationClip:
  m_ObjectHideFlags: 0
  m_CorrespondingSourceObject: {fileID: 0}
  m_PrefabInstance: {fileID: 0}
  m_PrefabAsset: {fileID: 0}
  m_Name: Walk Zombie
  serializedVersion: 6
  m_Legacy: 0
  m_Compressed: 0
  m_UseHighQualityCurve: 1
  m_RotationCurves: []
  m_CompressedRotationCurves: []
  m_EulerCurves: []
  m_PositionCurves: []
  m_ScaleCurves: []
  m_FloatCurves: []
  m_PPtrCurves:
  - curve:
    - time: 0
      value: {fileID: 21300000, guid: df97b7e72fa244a579b3c3f9623ed080, type: 3}
    - time: 0.083333336
      value: {fileID: 21300000, guid: b2d7b4c88755544b694e84e53bbd4276, type: 3}
    - time: 0.16666667
      value: {fileID: 21300000, guid: ea3b26f62a97b40fe9f80125cf652f04, type: 3}
    - time: 0.25
      value: {fileID: 21300000, guid: e51bdbfcadc34427996cd0f78f00603d, type: 3}
    - time: 0.33333334
      value: {fileID: 21300000, guid: 75d819104f00148a9a221a6dd116ebac, type: 3}
    - time: 0.41666666
      value: {fileID: 21300000, guid: d0ea7cbab1f6249d3aba08c0aec241c0, type: 3}
    - time: 0.5
      value: {fileID: 21300000, guid: 47ed03f557f56495fbaa4831d3634db9, type: 3}
    - time: 0.5833333
      value: {fileID: 21300000, guid: 340c33747889e4689bc941fd6d6f4d53, type: 3}
    - time: 0.6666667
      value: {fileID: 21300000, guid: 9505423ed8c7b4345b32d64c8505a242, type: 3}
    - time: 0.75
      value: {fileID: 21300000, guid: e68b940f188dd44a1a6c9100b2a41452, type: 3}
    attribute: m_Sprite
    path: 
    classID: 212
    script: {fileID: 0}
  m_SampleRate: 12
  m_WrapMode: 0
  m_Bounds:
    m_Center: {x: 0, y: 0, z: 0}
    m_Extent: {x: 0, y: 0, z: 0}
  m_ClipBindingConstant:
    genericBindings:
    - serializedVersion: 2
      path: 0
      attribute: 0
      script: {fileID: 0}
      typeID: 212
      customType: 23
      isPPtrCurve: 1
    pptrCurveMapping:
    - {fileID: 21300000, guid: df97b7e72fa244a579b3c3f9623ed080, type: 3}
    - {fileID: 21300000, guid: b2d7b4c88755544b694e84e53bbd4276, type: 3}
    - {fileID: 21300000, guid: ea3b26f62a97b40fe9f80125cf652f04, type: 3}
    - {fileID: 21300000, guid: e51bdbfcadc34427996cd0f78f00603d, type: 3}
    - {fileID: 21300000, guid: 75d819104f00148a9a221a6dd116ebac, type: 3}
    - {fileID: 21300000, guid: d0ea7cbab1f6249d3aba08c0aec241c0, type: 3}
    - {fileID: 21300000, guid: 47ed03f557f56495fbaa4831d3634db9, type: 3}
    - {fileID: 21300000, guid: 340c33747889e4689bc941fd6d6f4d53, type: 3}
    - {fileID: 21300000, guid: 9505423ed8c7b4345b32d64c8505a242, type: 3}
    - {fileID: 21300000, guid: e68b940f188dd44a1a6c9100b2a41452, type: 3}
  m_AnimationClipSettings:
    serializedVersion: 2
    m_AdditiveReferencePoseClip: {fileID: 0}
    m_AdditiveReferencePoseTime: 0
    m_StartTime: 0
    m_StopTime: 0.8333333
    m_OrientationOffsetY: 0
    m_Level: 0
    m_CycleOffset: 0
    m_HasAdditiveReferencePose: 0
    m_LoopTime: 1
    m_LoopBlend: 0
    m_LoopBlendOrientation: 0
    m_LoopBlendPositionY: 0
    m_LoopBlendPositionXZ: 0
    m_KeepOriginalOrientation: 0
    m_KeepOriginalPositionY: 1
    m_KeepOriginalPositionXZ: 0
    m_HeightFromFeet: 0
    m_Mirror: 0
  m_EditorCurves: []
  m_EulerEditorCurves: []
  m_HasGenericRootTransform: 0
  m_HasMotionFloatCurves: 0
  m_Events: []
