%YAML 1.1
%TAG !u! tag:unity3d.com,2011:
--- !u!74 &7400000
AnimationClip:
  m_ObjectHideFlags: 0
  m_CorrespondingSourceObject: {fileID: 0}
  m_PrefabInstance: {fileID: 0}
  m_PrefabAsset: {fileID: 0}
  m_Name: Zombie Idle
  serializedVersion: 6
  m_Legacy: 0
  m_Compressed: 0
  m_UseHighQualityCurve: 1
  m_RotationCurves: []
  m_CompressedRotationCurves: []
  m_EulerCurves: []
  m_PositionCurves: []
  m_ScaleCurves: []
  m_FloatCurves: []
  m_PPtrCurves:
  - curve:
    - time: 0
      value: {fileID: 21300000, guid: a805ae843ef294c58a46a273783a2b74, type: 3}
    - time: 0.083333336
      value: {fileID: 21300000, guid: b4dd7596b96fc4f0fb7ff6cfee3a7ec5, type: 3}
    - time: 0.16666667
      value: {fileID: 21300000, guid: 4d1c433c3d38742b5aa49fc3a3e8962b, type: 3}
    - time: 0.25
      value: {fileID: 21300000, guid: 2353de15e49a64cdd901b2bbb7e8f4ed, type: 3}
    - time: 0.33333334
      value: {fileID: 21300000, guid: bbe54065f1c744e1fb3ef1387d1536cc, type: 3}
    - time: 0.41666666
      value: {fileID: 21300000, guid: 75939ba1a0f544ef78124dc81b2d489d, type: 3}
    - time: 0.5
      value: {fileID: 21300000, guid: 4961667e0f9a74e1db01b063ac0760bb, type: 3}
    - time: 0.5833333
      value: {fileID: 21300000, guid: 4df03f55bcb824317898e6d3fb3efe59, type: 3}
    - time: 0.6666667
      value: {fileID: 21300000, guid: 0c1c90d86f2ab42f4bdccfe53a2f9843, type: 3}
    - time: 0.75
      value: {fileID: 21300000, guid: 623c71d77453e418682dee4cc325e3fc, type: 3}
    - time: 0.8333333
      value: {fileID: 21300000, guid: c5817ade5420c4aa68606e432f7e1d3d, type: 3}
    - time: 0.9166667
      value: {fileID: 21300000, guid: fa390c5b85bd0430fa4a072b38627c57, type: 3}
    - time: 1
      value: {fileID: 21300000, guid: 2b96b42c12d494a9aa7e6a0c327d4463, type: 3}
    - time: 1.0833334
      value: {fileID: 21300000, guid: ade93b7297b614f0aa2de100c620dfd2, type: 3}
    - time: 1.1666666
      value: {fileID: 21300000, guid: 008aa7425b65a412ab8a6327be838263, type: 3}
    attribute: m_Sprite
    path: 
    classID: 212
    script: {fileID: 0}
  m_SampleRate: 12
  m_WrapMode: 0
  m_Bounds:
    m_Center: {x: 0, y: 0, z: 0}
    m_Extent: {x: 0, y: 0, z: 0}
  m_ClipBindingConstant:
    genericBindings:
    - serializedVersion: 2
      path: 0
      attribute: 0
      script: {fileID: 0}
      typeID: 212
      customType: 23
      isPPtrCurve: 1
    pptrCurveMapping:
    - {fileID: 21300000, guid: a805ae843ef294c58a46a273783a2b74, type: 3}
    - {fileID: 21300000, guid: b4dd7596b96fc4f0fb7ff6cfee3a7ec5, type: 3}
    - {fileID: 21300000, guid: 4d1c433c3d38742b5aa49fc3a3e8962b, type: 3}
    - {fileID: 21300000, guid: 2353de15e49a64cdd901b2bbb7e8f4ed, type: 3}
    - {fileID: 21300000, guid: bbe54065f1c744e1fb3ef1387d1536cc, type: 3}
    - {fileID: 21300000, guid: 75939ba1a0f544ef78124dc81b2d489d, type: 3}
    - {fileID: 21300000, guid: 4961667e0f9a74e1db01b063ac0760bb, type: 3}
    - {fileID: 21300000, guid: 4df03f55bcb824317898e6d3fb3efe59, type: 3}
    - {fileID: 21300000, guid: 0c1c90d86f2ab42f4bdccfe53a2f9843, type: 3}
    - {fileID: 21300000, guid: 623c71d77453e418682dee4cc325e3fc, type: 3}
    - {fileID: 21300000, guid: c5817ade5420c4aa68606e432f7e1d3d, type: 3}
    - {fileID: 21300000, guid: fa390c5b85bd0430fa4a072b38627c57, type: 3}
    - {fileID: 21300000, guid: 2b96b42c12d494a9aa7e6a0c327d4463, type: 3}
    - {fileID: 21300000, guid: ade93b7297b614f0aa2de100c620dfd2, type: 3}
    - {fileID: 21300000, guid: 008aa7425b65a412ab8a6327be838263, type: 3}
  m_AnimationClipSettings:
    serializedVersion: 2
    m_AdditiveReferencePoseClip: {fileID: 0}
    m_AdditiveReferencePoseTime: 0
    m_StartTime: 0
    m_StopTime: 1.25
    m_OrientationOffsetY: 0
    m_Level: 0
    m_CycleOffset: 0
    m_HasAdditiveReferencePose: 0
    m_LoopTime: 1
    m_LoopBlend: 0
    m_LoopBlendOrientation: 0
    m_LoopBlendPositionY: 0
    m_LoopBlendPositionXZ: 0
    m_KeepOriginalOrientation: 0
    m_KeepOriginalPositionY: 1
    m_KeepOriginalPositionXZ: 0
    m_HeightFromFeet: 0
    m_Mirror: 0
  m_EditorCurves: []
  m_EulerEditorCurves: []
  m_HasGenericRootTransform: 0
  m_HasMotionFloatCurves: 0
  m_Events: []
